<?xml version="1.0" encoding="utf-8"?>
<!-- Generator: Adobe Illustrator 20.1.0, SVG Export Plug-In . SVG Version: 6.00 Build 0)  -->
<svg version="1.1" id="Layer_1" xmlns="http://www.w3.org/2000/svg" xmlns:xlink="http://www.w3.org/1999/xlink" x="0px" y="0px"
	 viewBox="0 0 43 28" style="enable-background:new 0 0 43 28;" xml:space="preserve">
<style type="text/css">
	.st0{fill:#FA9D1E;}
</style>
<rect x="0.426" y="11.643" class="st0" width="42.148" height="5.12"/>
</svg>
